module movie-service

go 1.18

require (
	github.com/godror/godror v0.33.0
	github.com/gorilla/mux v1.8.0
	github.com/rs/cors v1.8.2
)

require (
	github.com/go-logfmt/logfmt v0.5.1 // indirect
	github.com/go-logr/logr v1.2.3 // indirect
	github.com/godror/knownpb v0.1.0 // indirect
	google.golang.org/protobuf v1.27.1 // indirect
)
